<?xml version="1.0" encoding="utf-8"?>
<!-- Generator: Adobe Illustrator 17.0.1, SVG Export Plug-In . SVG Version: 6.00 Build 0)  -->
<!DOCTYPE svg PUBLIC "-//W3C//DTD SVG 1.1//EN" "http://www.w3.org/Graphics/SVG/1.1/DTD/svg11.dtd">
<svg version="1.1" id="Layer_1" xmlns="http://www.w3.org/2000/svg" xmlns:xlink="http://www.w3.org/1999/xlink" x="0px" y="0px"
	 width="50px" height="50px" viewBox="0 0 50 50" enable-background="new 0 0 50 50" xml:space="preserve">
<g>
	<path fill="#54514E" d="M25,1C11.747,1,1,11.746,1,25c0,13.256,10.747,24,24,24c13.254,0,24-10.744,24-24C49,11.746,38.254,1,25,1z
		 M22.937,7.797l2.516-2.692l2.605,2.692l2.696-0.742l-0.903,3.221h-8.714L19.942,6.81L22.937,7.797z M40.872,14.471v24.081
		l-1.914,2.283l-1.918-2.283v-4.198h-5.411v4.198l-1.917,2.283l-1.914-2.283v-4.198h-5.162v4.198l-1.913,2.283l-1.917-2.283v-4.198
		h-5.159v4.198l-1.921,2.283l-1.912-2.283V14.471v-1.65h31.061V14.471z"/>
	<rect x="13.644" y="25.725" fill="#54514E" width="5.159" height="4.669"/>
	<rect x="22.634" y="25.725" fill="#54514E" width="5.162" height="4.669"/>
	<rect x="22.634" y="16.787" fill="#54514E" width="5.162" height="4.973"/>
	<rect x="13.644" y="16.787" fill="#54514E" width="5.159" height="4.973"/>
	<rect x="31.628" y="25.725" fill="#54514E" width="5.411" height="4.669"/>
	<rect x="31.628" y="16.787" fill="#54514E" width="5.411" height="4.973"/>
</g>
</svg>
