<?xml version="1.0" encoding="utf-8"?>
<!-- Generator: Adobe Illustrator 17.0.1, SVG Export Plug-In . SVG Version: 6.00 Build 0)  -->
<!DOCTYPE svg PUBLIC "-//W3C//DTD SVG 1.1//EN" "http://www.w3.org/Graphics/SVG/1.1/DTD/svg11.dtd">
<svg version="1.1" id="Layer_1" xmlns="http://www.w3.org/2000/svg" xmlns:xlink="http://www.w3.org/1999/xlink" x="0px" y="0px"
	 width="500px" height="500px" viewBox="0 0 500 500" enable-background="new 0 0 500 500" xml:space="preserve">
<path fill="#FFFFFF" d="M250,4.999C114.67,4.999,5,114.692,5,249.994c0,135.308,109.67,245.007,245,245.007
	c135.315,0,245-109.7,245-245.007C495,114.692,385.315,4.999,250,4.999z M192.651,153.016l118.483,69.882l-14.926,25.303
	l-118.49-69.886L192.651,153.016z M160.955,220.793l132.838,35.711l-7.625,28.371l-132.844-35.71L160.955,220.793z M147.783,282.221
	l136.973,12.621l-2.695,29.249l-136.974-12.612L147.783,282.221z M281.431,332.511l0.017,29.381l-137.562,0.065l-0.013-29.378
	L281.431,332.511z M328.305,401.544c0,0,0,6.863-0.232,6.863v0.112H107.977c0,0-6.86,0-6.86-0.112h-0.234V265.25h23.498v120.107
	h180.425V265.25h23.498V401.544z M315.915,218.866l-77.507-113.645l24.275-16.553l77.503,113.653L315.915,218.866z M345.447,200.535
	L321.919,65.009l28.948-5.024L374.4,195.513L345.447,200.535z"/>
</svg>
